,S_DATE,CashFlow
0,2013-01-01,962
1,2013-01-02,972
2,2013-01-03,954
3,2013-01-04,967
4,2013-01-05,948
5,2013-01-06,1003
6,2013-01-07,926
7,2013-01-08,957
8,2013-01-09,964
9,2013-01-10,971
10,2013-01-11,966
11,2013-01-12,971
12,2013-01-13,938
13,2013-01-14,967
14,2013-01-15,943
15,2013-01-16,993
16,2013-01-17,1021
17,2013-01-18,980
18,2013-01-19,946
19,2013-01-20,942
20,2013-01-21,1009
21,2013-01-22,952
22,2013-01-23,969
23,2013-01-24,961
24,2013-01-25,952
25,2013-01-26,990
26,2013-01-27,939
27,2013-01-28,939
28,2013-01-29,972
29,2013-01-30,974
30,2013-01-31,942
31,2013-02-01,968
32,2013-02-02,977
33,2013-02-03,962
34,2013-02-04,978
35,2013-02-05,996
36,2013-02-06,1011
37,2013-02-07,941
38,2013-02-08,928
39,2013-02-09,971
40,2013-02-10,1013
41,2013-02-11,978
42,2013-02-12,979
43,2013-02-13,949
44,2013-02-14,948
45,2013-02-15,986
46,2013-02-16,959
47,2013-02-17,963
48,2013-02-18,963
49,2013-02-19,986
50,2013-02-20,975
51,2013-02-21,948
52,2013-02-22,903
53,2013-02-23,914
54,2013-02-24,969
55,2013-02-25,970
56,2013-02-26,935
57,2013-02-27,1001
58,2013-02-28,928
59,2013-03-01,963
60,2013-03-02,961
61,2013-03-03,980
62,2013-03-04,987
63,2013-03-05,974
64,2013-03-06,950
65,2013-03-07,936
66,2013-03-08,954
67,2013-03-09,966
68,2013-03-10,964
69,2013-03-11,947
70,2013-03-12,986
71,2013-03-13,924
72,2013-03-14,942
73,2013-03-15,911
74,2013-03-16,956
75,2013-03-17,906
76,2013-03-18,990
77,2013-03-19,952
78,2013-03-20,973
79,2013-03-21,930
80,2013-03-22,916
81,2013-03-23,1002
82,2013-03-24,984
83,2013-03-25,987
84,2013-03-26,986
85,2013-03-27,940
86,2013-03-28,937
87,2013-03-29,984
88,2013-03-30,958
89,2013-03-31,956
90,2013-04-01,981
91,2013-04-02,959
92,2013-04-03,989
93,2013-04-04,918
94,2013-04-05,932
95,2013-04-06,901
96,2013-04-07,966
97,2013-04-08,942
98,2013-04-09,986
99,2013-04-10,919
100,2013-04-11,930
101,2013-04-12,944
102,2013-04-13,960
103,2013-04-14,969
104,2013-04-15,984
105,2013-04-16,928
106,2013-04-17,997
107,2013-04-18,965
108,2013-04-19,949
109,2013-04-20,980
110,2013-04-21,959
111,2013-04-22,960
112,2013-04-23,974
113,2013-04-24,953
114,2013-04-25,949
115,2013-04-26,926
116,2013-04-27,957
117,2013-04-28,947
118,2013-04-29,1029
119,2013-04-30,978
120,2013-05-01,918
121,2013-05-02,916
122,2013-05-03,972
123,2013-05-04,913
124,2013-05-05,943
125,2013-05-06,953
126,2013-05-07,994
127,2013-05-08,964
128,2013-05-09,934
129,2013-05-10,963
130,2013-05-11,944
131,2013-05-12,992
132,2013-05-13,954
133,2013-05-14,956
134,2013-05-15,989
135,2013-05-16,963
136,2013-05-17,921
137,2013-05-18,978
138,2013-05-19,975
139,2013-05-20,962
140,2013-05-21,1022
141,2013-05-22,989
142,2013-05-23,903
143,2013-05-24,923
144,2013-05-25,955
145,2013-05-26,958
146,2013-05-27,1001
147,2013-05-28,982
148,2013-05-29,970
149,2013-05-30,944
150,2013-05-31,995
151,2013-06-01,968
152,2013-06-02,972
153,2013-06-03,981
154,2013-06-04,930
155,2013-06-05,989
156,2013-06-06,957
157,2013-06-07,963
158,2013-06-08,987
159,2013-06-09,963
160,2013-06-10,929
161,2013-06-11,996
162,2013-06-12,950
163,2013-06-13,985
164,2013-06-14,972
165,2013-06-15,909
166,2013-06-16,945
167,2013-06-17,953
168,2013-06-18,956
169,2013-06-19,958
170,2013-06-20,973
171,2013-06-21,962
172,2013-06-22,949
173,2013-06-23,940
174,2013-06-24,962
175,2013-06-25,912
176,2013-06-26,955
177,2013-06-27,990
178,2013-06-28,941
179,2013-06-29,916
180,2013-06-30,999
181,2013-07-01,955
182,2013-07-02,958
183,2013-07-03,1013
184,2013-07-04,963
185,2013-07-05,911
186,2013-07-06,897
187,2013-07-07,1011
188,2013-07-08,959
189,2013-07-09,946
190,2013-07-10,951
191,2013-07-11,999
192,2013-07-12,965
193,2013-07-13,952
194,2013-07-14,911
195,2013-07-15,953
196,2013-07-16,957
197,2013-07-17,1003
198,2013-07-18,977
199,2013-07-19,978
200,2013-07-20,982
201,2013-07-21,976
202,2013-07-22,962
203,2013-07-23,970
204,2013-07-24,974
205,2013-07-25,910
206,2013-07-26,948
207,2013-07-27,918
208,2013-07-28,976
209,2013-07-29,1000
210,2013-07-30,953
211,2013-07-31,965
212,2013-08-01,912
213,2013-08-02,958
214,2013-08-03,952
215,2013-08-04,989
216,2013-08-05,994
217,2013-08-06,925
218,2013-08-07,946
219,2013-08-08,971
220,2013-08-09,980
221,2013-08-10,929
222,2013-08-11,943
223,2013-08-12,936
224,2013-08-13,938
225,2013-08-14,938
226,2013-08-15,977
227,2013-08-16,1015
228,2013-08-17,931
229,2013-08-18,981
230,2013-08-19,938
231,2013-08-20,946
232,2013-08-21,1020
233,2013-08-22,978
234,2013-08-23,922
235,2013-08-24,931
236,2013-08-25,992
237,2013-08-26,948
238,2013-08-27,967
239,2013-08-28,978
240,2013-08-29,987
241,2013-08-30,927
242,2013-08-31,951
243,2013-09-01,1019
244,2013-09-02,977
245,2013-09-03,996
246,2013-09-04,899
247,2013-09-05,952
248,2013-09-06,920
249,2013-09-07,939
250,2013-09-08,955
251,2013-09-09,962
252,2013-09-10,979
253,2013-09-11,954
254,2013-09-12,901
255,2013-09-13,926
256,2013-09-14,958
257,2013-09-15,982
258,2013-09-16,983
259,2013-09-17,931
260,2013-09-18,941
261,2013-09-19,931
262,2013-09-20,954
263,2013-09-21,927
264,2013-09-22,924
265,2013-09-23,928
266,2013-09-24,976
267,2013-09-25,959
268,2013-09-26,936
269,2013-09-27,959
270,2013-09-28,930
271,2013-09-29,974
272,2013-09-30,975
273,2013-10-01,966
274,2013-10-02,945
275,2013-10-03,968
276,2013-10-04,970
277,2013-10-05,965
278,2013-10-06,903
279,2013-10-07,992
280,2013-10-08,951
281,2013-10-09,963
282,2013-10-10,946
283,2013-10-11,980
284,2013-10-12,981
285,2013-10-13,918
286,2013-10-14,956
287,2013-10-15,976
288,2013-10-16,930
289,2013-10-17,950
290,2013-10-18,904
291,2013-10-19,947
292,2013-10-20,981
293,2013-10-21,964
294,2013-10-22,937
295,2013-10-23,952
296,2013-10-24,995
297,2013-10-25,969
298,2013-10-26,986
299,2013-10-27,990
300,2013-10-28,977
301,2013-10-29,956
302,2013-10-30,1001
303,2013-10-31,1026
304,2013-11-01,976
305,2013-11-02,1016
306,2013-11-03,938
307,2013-11-04,951
308,2013-11-05,976
309,2013-11-06,953
310,2013-11-07,952
311,2013-11-08,983
312,2013-11-09,991
313,2013-11-10,989
314,2013-11-11,951
315,2013-11-12,976
316,2013-11-13,931
317,2013-11-14,946
318,2013-11-15,919
319,2013-11-16,925
320,2013-11-17,998
321,2013-11-18,949
322,2013-11-19,936
323,2013-11-20,1015
324,2013-11-21,935
325,2013-11-22,911
326,2013-11-23,980
327,2013-11-24,952
328,2013-11-25,978
329,2013-11-26,904
330,2013-11-27,958
331,2013-11-28,919
332,2013-11-29,952
333,2013-11-30,916
334,2013-12-01,987
335,2013-12-02,955
336,2013-12-03,968
337,2013-12-04,975
338,2013-12-05,932
339,2013-12-06,954
340,2013-12-07,907
341,2013-12-08,994
342,2013-12-09,940
343,2013-12-10,949
344,2013-12-11,962
345,2013-12-12,929
346,2013-12-13,978
347,2013-12-14,958
348,2013-12-15,977
349,2013-12-16,961
350,2013-12-17,924
351,2013-12-18,946
352,2013-12-19,929
353,2013-12-20,934
354,2013-12-21,937
355,2013-12-22,925
356,2013-12-23,926
357,2013-12-24,980
358,2013-12-25,918
359,2013-12-26,928
360,2013-12-27,1003
361,2013-12-28,987
362,2013-12-29,922
363,2013-12-30,980
364,2013-12-31,1007
365,2014-01-01,951
366,2014-01-02,948
367,2014-01-03,940
368,2014-01-04,891
369,2014-01-05,977
370,2014-01-06,918
371,2014-01-07,939
372,2014-01-08,947
373,2014-01-09,990
374,2014-01-10,938
375,2014-01-11,918
376,2014-01-12,976
377,2014-01-13,936
378,2014-01-14,970
379,2014-01-15,957
380,2014-01-16,973
381,2014-01-17,929
382,2014-01-18,939
383,2014-01-19,940
384,2014-01-20,917
385,2014-01-21,913
386,2014-01-22,956
387,2014-01-23,953
388,2014-01-24,985
389,2014-01-25,965
390,2014-01-26,924
391,2014-01-27,942
392,2014-01-28,986
393,2014-01-29,969
394,2014-01-30,945
395,2014-01-31,989
396,2014-02-01,984
397,2014-02-02,926
398,2014-02-03,943
399,2014-02-04,1026
400,2014-02-05,943
401,2014-02-06,990
402,2014-02-07,989
403,2014-02-08,947
404,2014-02-09,984
405,2014-02-10,941
406,2014-02-11,979
407,2014-02-12,930
408,2014-02-13,959
409,2014-02-14,975
410,2014-02-15,969
411,2014-02-16,977
412,2014-02-17,995
413,2014-02-18,958
414,2014-02-19,960
415,2014-02-20,943
416,2014-02-21,943
417,2014-02-22,933
418,2014-02-23,962
419,2014-02-24,969
420,2014-02-25,996
421,2014-02-26,966
422,2014-02-27,970
423,2014-02-28,930
424,2014-03-01,929
425,2014-03-02,920
426,2014-03-03,919
427,2014-03-04,957
428,2014-03-05,935
429,2014-03-06,973
430,2014-03-07,953
431,2014-03-08,939
432,2014-03-09,961
433,2014-03-10,966
434,2014-03-11,982
435,2014-03-12,983
436,2014-03-13,983
437,2014-03-14,966
438,2014-03-15,936
439,2014-03-16,953
440,2014-03-17,996
441,2014-03-18,980
442,2014-03-19,950
443,2014-03-20,929
444,2014-03-21,989
445,2014-03-22,965
446,2014-03-23,948
447,2014-03-24,912
448,2014-03-25,944
449,2014-03-26,960
450,2014-03-27,927
451,2014-03-28,921
452,2014-03-29,941
453,2014-03-30,968
454,2014-03-31,977
455,2014-04-01,920
456,2014-04-02,969
457,2014-04-03,975
458,2014-04-04,937
459,2014-04-05,967
460,2014-04-06,964
461,2014-04-07,1000
462,2014-04-08,943
463,2014-04-09,965
464,2014-04-10,910
465,2014-04-11,975
466,2014-04-12,967
467,2014-04-13,957
468,2014-04-14,946
469,2014-04-15,995
470,2014-04-16,981
471,2014-04-17,958
472,2014-04-18,943
473,2014-04-19,1012
474,2014-04-20,923
475,2014-04-21,989
476,2014-04-22,1005
477,2014-04-23,966
478,2014-04-24,968
479,2014-04-25,997
480,2014-04-26,950
481,2014-04-27,982
482,2014-04-28,911
483,2014-04-29,986
484,2014-04-30,925
485,2014-05-01,945
486,2014-05-02,978
487,2014-05-03,974
488,2014-05-04,967
489,2014-05-05,935
490,2014-05-06,974
491,2014-05-07,983
492,2014-05-08,956
493,2014-05-09,965
494,2014-05-10,984
495,2014-05-11,991
496,2014-05-12,935
497,2014-05-13,969
498,2014-05-14,1004
499,2014-05-15,959
500,2014-05-16,989
501,2014-05-17,982
502,2014-05-18,943
503,2014-05-19,964
504,2014-05-20,930
505,2014-05-21,1004
506,2014-05-22,991
507,2014-05-23,958
508,2014-05-24,939
509,2014-05-25,953
510,2014-05-26,948
511,2014-05-27,1006
512,2014-05-28,922
513,2014-05-29,987
514,2014-05-30,963
515,2014-05-31,961
516,2014-06-01,952
517,2014-06-02,966
518,2014-06-03,988
519,2014-06-04,938
520,2014-06-05,993
521,2014-06-06,1012
522,2014-06-07,961
523,2014-06-08,995
524,2014-06-09,965
525,2014-06-10,1037
526,2014-06-11,953
527,2014-06-12,954
528,2014-06-13,936
529,2014-06-14,990
530,2014-06-15,935
531,2014-06-16,989
532,2014-06-17,982
533,2014-06-18,971
534,2014-06-19,954
535,2014-06-20,953
536,2014-06-21,946
537,2014-06-22,979
538,2014-06-23,961
539,2014-06-24,1005
540,2014-06-25,979
541,2014-06-26,966
542,2014-06-27,988
543,2014-06-28,920
544,2014-06-29,904
545,2014-06-30,980
546,2014-07-01,970
547,2014-07-02,918
548,2014-07-03,974
549,2014-07-04,968
550,2014-07-05,912
551,2014-07-06,927
552,2014-07-07,1010
553,2014-07-08,930
554,2014-07-09,954
555,2014-07-10,940
556,2014-07-11,990
557,2014-07-12,985
558,2014-07-13,949
559,2014-07-14,937
560,2014-07-15,955
561,2014-07-16,935
562,2014-07-17,916
563,2014-07-18,955
564,2014-07-19,988
565,2014-07-20,935
566,2014-07-21,1001
567,2014-07-22,970
568,2014-07-23,978
569,2014-07-24,966
570,2014-07-25,932
571,2014-07-26,953
572,2014-07-27,921
573,2014-07-28,903
574,2014-07-29,978
575,2014-07-30,932
576,2014-07-31,988
577,2014-08-01,944
578,2014-08-02,920
579,2014-08-03,954
580,2014-08-04,991
581,2014-08-05,973
582,2014-08-06,948
583,2014-08-07,997
584,2014-08-08,1024
585,2014-08-09,1017
586,2014-08-10,960
587,2014-08-11,992
588,2014-08-12,1017
589,2014-08-13,966
590,2014-08-14,961
591,2014-08-15,986
592,2014-08-16,984
593,2014-08-17,871
594,2014-08-18,952
595,2014-08-19,1022
596,2014-08-20,929
597,2014-08-21,932
598,2014-08-22,973
599,2014-08-23,978
600,2014-08-24,967
601,2014-08-25,931
602,2014-08-26,948
603,2014-08-27,969
604,2014-08-28,977
605,2014-08-29,966
606,2014-08-30,900
607,2014-08-31,989
608,2014-09-01,983
609,2014-09-02,934
610,2014-09-03,966
611,2014-09-04,958
612,2014-09-05,964
613,2014-09-06,946
614,2014-09-07,1001
615,2014-09-08,994
616,2014-09-09,966
617,2014-09-10,1030
618,2014-09-11,958
619,2014-09-12,891
620,2014-09-13,1015
621,2014-09-14,922
622,2014-09-15,946
623,2014-09-16,1014
624,2014-09-17,984
625,2014-09-18,978
626,2014-09-19,989
627,2014-09-20,979
628,2014-09-21,933
629,2014-09-22,979
630,2014-09-23,941
631,2014-09-24,950
632,2014-09-25,958
633,2014-09-26,1002
634,2014-09-27,996
635,2014-09-28,975
636,2014-09-29,994
637,2014-09-30,911
638,2014-10-01,1020
639,2014-10-02,965
640,2014-10-03,979
641,2014-10-04,975
642,2014-10-05,964
643,2014-10-06,977
644,2014-10-07,887
645,2014-10-08,980
646,2014-10-09,988
647,2014-10-10,940
648,2014-10-11,946
649,2014-10-12,966
650,2014-10-13,999
651,2014-10-14,917
652,2014-10-15,981
653,2014-10-16,908
654,2014-10-17,976
655,2014-10-18,948
656,2014-10-19,972
657,2014-10-20,910
658,2014-10-21,948
659,2014-10-22,913
660,2014-10-23,979
661,2014-10-24,979
662,2014-10-25,914
663,2014-10-26,962
664,2014-10-27,1005
665,2014-10-28,963
666,2014-10-29,938
667,2014-10-30,969
668,2014-10-31,952
669,2014-11-01,964
670,2014-11-02,960
671,2014-11-03,930
672,2014-11-04,962
673,2014-11-05,952
674,2014-11-06,913
675,2014-11-07,919
676,2014-11-08,1023
677,2014-11-09,981
678,2014-11-10,942
679,2014-11-11,958
680,2014-11-12,967
681,2014-11-13,991
682,2014-11-14,889
683,2014-11-15,945
684,2014-11-16,987
685,2014-11-17,1011
686,2014-11-18,919
687,2014-11-19,1039
688,2014-11-20,928
689,2014-11-21,1001
690,2014-11-22,994
691,2014-11-23,934
692,2014-11-24,947
693,2014-11-25,946
694,2014-11-26,965
695,2014-11-27,968
696,2014-11-28,921
697,2014-11-29,1021
698,2014-11-30,952
699,2014-12-01,978
700,2014-12-02,998
701,2014-12-03,954
702,2014-12-04,1009
703,2014-12-05,966
704,2014-12-06,953
705,2014-12-07,912
706,2014-12-08,947
707,2014-12-09,1015
708,2014-12-10,961
709,2014-12-11,990
710,2014-12-12,976
711,2014-12-13,957
712,2014-12-14,921
713,2014-12-15,935
714,2014-12-16,972
715,2014-12-17,955
716,2014-12-18,942
717,2014-12-19,949
718,2014-12-20,976
719,2014-12-21,971
720,2014-12-22,922
721,2014-12-23,955
722,2014-12-24,944
723,2014-12-25,946
724,2014-12-26,962
725,2014-12-27,949
726,2014-12-28,975
727,2014-12-29,960
728,2014-12-30,924
729,2014-12-31,991
730,2015-01-01,943
731,2015-01-02,978
732,2015-01-03,946
733,2015-01-04,953
734,2015-01-05,918
735,2015-01-06,924
736,2015-01-07,954
737,2015-01-08,928
738,2015-01-09,953
739,2015-01-10,902
740,2015-01-11,956
741,2015-01-12,964
742,2015-01-13,967
743,2015-01-14,956
744,2015-01-15,980
745,2015-01-16,914
746,2015-01-17,966
747,2015-01-18,926
748,2015-01-19,1022
749,2015-01-20,993
750,2015-01-21,946
751,2015-01-22,995
752,2015-01-23,976
753,2015-01-24,967
754,2015-01-25,946
755,2015-01-26,943
756,2015-01-27,940
757,2015-01-28,987
758,2015-01-29,913
759,2015-01-30,999
760,2015-01-31,949
761,2015-02-01,943
762,2015-02-02,950
763,2015-02-03,942
764,2015-02-04,988
765,2015-02-05,935
766,2015-02-06,929
767,2015-02-07,951
768,2015-02-08,955
769,2015-02-09,930
770,2015-02-10,930
771,2015-02-11,1009
772,2015-02-12,927
773,2015-02-13,913
774,2015-02-14,1015
775,2015-02-15,1026
776,2015-02-16,954
777,2015-02-17,983
778,2015-02-18,970
779,2015-02-19,945
780,2015-02-20,997
781,2015-02-21,990
782,2015-02-22,970
783,2015-02-23,966
784,2015-02-24,1001
785,2015-02-25,960
786,2015-02-26,969
787,2015-02-27,941
788,2015-02-28,967
789,2015-03-01,946
790,2015-03-02,964
791,2015-03-03,936
792,2015-03-04,972
793,2015-03-05,920
794,2015-03-06,907
795,2015-03-07,940
796,2015-03-08,1021
797,2015-03-09,952
798,2015-03-10,980
799,2015-03-11,952
800,2015-03-12,959
801,2015-03-13,946
802,2015-03-14,1006
803,2015-03-15,919
804,2015-03-16,924
805,2015-03-17,1024
806,2015-03-18,991
807,2015-03-19,958
808,2015-03-20,989
809,2015-03-21,999
810,2015-03-22,959
811,2015-03-23,935
812,2015-03-24,964
813,2015-03-25,1045
814,2015-03-26,952
815,2015-03-27,904
816,2015-03-28,952
817,2015-03-29,956
818,2015-03-30,976
819,2015-03-31,959
820,2015-04-01,920
821,2015-04-02,965
822,2015-04-03,990
823,2015-04-04,956
824,2015-04-05,945
825,2015-04-06,1003
826,2015-04-07,918
827,2015-04-08,973
828,2015-04-09,963
829,2015-04-10,957
830,2015-04-11,948
831,2015-04-12,968
832,2015-04-13,957
833,2015-04-14,985
834,2015-04-15,921
835,2015-04-16,900
836,2015-04-17,961
837,2015-04-18,916
838,2015-04-19,1021
839,2015-04-20,929
840,2015-04-21,933
841,2015-04-22,1001
842,2015-04-23,916
843,2015-04-24,867
844,2015-04-25,978
845,2015-04-26,994
846,2015-04-27,990
847,2015-04-28,972
848,2015-04-29,995
849,2015-04-30,916
850,2015-05-01,915
851,2015-05-02,910
852,2015-05-03,1008
853,2015-05-04,965
854,2015-05-05,932
855,2015-05-06,984
856,2015-05-07,982
857,2015-05-08,973
858,2015-05-09,980
859,2015-05-10,990
860,2015-05-11,969
861,2015-05-12,990
862,2015-05-13,962
863,2015-05-14,944
864,2015-05-15,946
865,2015-05-16,942
866,2015-05-17,979
867,2015-05-18,993
868,2015-05-19,956
869,2015-05-20,972
870,2015-05-21,954
871,2015-05-22,943
872,2015-05-23,962
873,2015-05-24,991
874,2015-05-25,971
875,2015-05-26,932
876,2015-05-27,960
877,2015-05-28,943
878,2015-05-29,944
879,2015-05-30,960
880,2015-05-31,973
881,2015-06-01,983
882,2015-06-02,929
883,2015-06-03,958
884,2015-06-04,936
885,2015-06-05,1027
886,2015-06-06,988
887,2015-06-07,956
888,2015-06-08,919
889,2015-06-09,933
890,2015-06-10,971
891,2015-06-11,923
892,2015-06-12,975
893,2015-06-13,979
894,2015-06-14,1000
895,2015-06-15,957
896,2015-06-16,943
897,2015-06-17,954
898,2015-06-18,950
899,2015-06-19,943
900,2015-06-20,991
901,2015-06-21,931
902,2015-06-22,939
903,2015-06-23,957
904,2015-06-24,947
905,2015-06-25,930
906,2015-06-26,1015
907,2015-06-27,968
908,2015-06-28,980
909,2015-06-29,954
910,2015-06-30,952
911,2015-07-01,972
912,2015-07-02,969
913,2015-07-03,988
914,2015-07-04,1021
915,2015-07-05,953
916,2015-07-06,972
917,2015-07-07,938
918,2015-07-08,976
919,2015-07-09,993
920,2015-07-10,947
921,2015-07-11,994
922,2015-07-12,917
923,2015-07-13,960
924,2015-07-14,1012
925,2015-07-15,949
926,2015-07-16,971
927,2015-07-17,976
928,2015-07-18,960
929,2015-07-19,970
930,2015-07-20,909
931,2015-07-21,961
932,2015-07-22,948
933,2015-07-23,987
934,2015-07-24,948
935,2015-07-25,965
936,2015-07-26,882
937,2015-07-27,939
938,2015-07-28,974
939,2015-07-29,961
940,2015-07-30,1024
941,2015-07-31,960
942,2015-08-01,1034
943,2015-08-02,941
944,2015-08-03,963
945,2015-08-04,939
946,2015-08-05,940
947,2015-08-06,887
948,2015-08-07,917
949,2015-08-08,992
950,2015-08-09,954
951,2015-08-10,979
952,2015-08-11,975
953,2015-08-12,968
954,2015-08-13,994
955,2015-08-14,982
956,2015-08-15,967
957,2015-08-16,969
958,2015-08-17,956
959,2015-08-18,1008
960,2015-08-19,1036
961,2015-08-20,975
962,2015-08-21,947
963,2015-08-22,959
964,2015-08-23,983
965,2015-08-24,977
966,2015-08-25,933
967,2015-08-26,959
968,2015-08-27,957
969,2015-08-28,968
970,2015-08-29,959
971,2015-08-30,970
972,2015-08-31,939
973,2015-09-01,946
974,2015-09-02,981
975,2015-09-03,984
976,2015-09-04,918
977,2015-09-05,941
978,2015-09-06,1026
979,2015-09-07,947
980,2015-09-08,950
981,2015-09-09,985
982,2015-09-10,935
983,2015-09-11,999
984,2015-09-12,966
985,2015-09-13,935
986,2015-09-14,986
987,2015-09-15,925
988,2015-09-16,918
989,2015-09-17,951
990,2015-09-18,932
991,2015-09-19,1011
992,2015-09-20,972
993,2015-09-21,953
994,2015-09-22,906
995,2015-09-23,967
996,2015-09-24,887
997,2015-09-25,1003
998,2015-09-26,975
999,2015-09-27,965
1000,2015-09-28,1002
1001,2015-09-29,996
1002,2015-09-30,943
1003,2015-10-01,913
1004,2015-10-02,976
1005,2015-10-03,1000
1006,2015-10-04,961
1007,2015-10-05,922
1008,2015-10-06,942
1009,2015-10-07,941
1010,2015-10-08,965
1011,2015-10-09,949
1012,2015-10-10,955
1013,2015-10-11,949
1014,2015-10-12,997
1015,2015-10-13,943
1016,2015-10-14,979
1017,2015-10-15,983
1018,2015-10-16,994
1019,2015-10-17,951
1020,2015-10-18,971
1021,2015-10-19,923
1022,2015-10-20,946
1023,2015-10-21,1011
1024,2015-10-22,949
1025,2015-10-23,976
1026,2015-10-24,968
1027,2015-10-25,945
1028,2015-10-26,958
1029,2015-10-27,958
1030,2015-10-28,897
1031,2015-10-29,956
1032,2015-10-30,948
1033,2015-10-31,991
1034,2015-11-01,931
1035,2015-11-02,1000
1036,2015-11-03,1004
1037,2015-11-04,944
1038,2015-11-05,961
1039,2015-11-06,952
1040,2015-11-07,945
1041,2015-11-08,997
1042,2015-11-09,958
1043,2015-11-10,981
1044,2015-11-11,953
1045,2015-11-12,990
1046,2015-11-13,970
1047,2015-11-14,977
1048,2015-11-15,983
1049,2015-11-16,933
1050,2015-11-17,939
1051,2015-11-18,955
1052,2015-11-19,937
1053,2015-11-20,940
1054,2015-11-21,988
1055,2015-11-22,936
1056,2015-11-23,995
1057,2015-11-24,989
1058,2015-11-25,1003
1059,2015-11-26,986
1060,2015-11-27,958
1061,2015-11-28,914
1062,2015-11-29,969
1063,2015-11-30,993
1064,2015-12-01,970
1065,2015-12-02,959
1066,2015-12-03,982
1067,2015-12-04,986
1068,2015-12-05,952
1069,2015-12-06,922
1070,2015-12-07,939
1071,2015-12-08,939
1072,2015-12-09,1018
1073,2015-12-10,961
1074,2015-12-11,962
1075,2015-12-12,992
1076,2015-12-13,1004
1077,2015-12-14,993
1078,2015-12-15,1002
1079,2015-12-16,943
1080,2015-12-17,1051
1081,2015-12-18,928
1082,2015-12-19,962
1083,2015-12-20,959
1084,2015-12-21,981
1085,2015-12-22,981
1086,2015-12-23,989
1087,2015-12-24,957
1088,2015-12-25,899
1089,2015-12-26,929
1090,2015-12-27,968
1091,2015-12-28,949
1092,2015-12-29,990
1093,2015-12-30,1012
1094,2015-12-31,939
1095,2016-01-01,928
1096,2016-01-02,925
1097,2016-01-03,1004
1098,2016-01-04,924
1099,2016-01-05,959
1100,2016-01-06,955
1101,2016-01-07,991
1102,2016-01-08,940
1103,2016-01-09,978
1104,2016-01-10,996
1105,2016-01-11,954
1106,2016-01-12,917
1107,2016-01-13,945
1108,2016-01-14,942
1109,2016-01-15,999
1110,2016-01-16,950
1111,2016-01-17,963
1112,2016-01-18,937
1113,2016-01-19,959
1114,2016-01-20,948
1115,2016-01-21,956
1116,2016-01-22,979
1117,2016-01-23,938
1118,2016-01-24,949
1119,2016-01-25,960
1120,2016-01-26,931
1121,2016-01-27,995
1122,2016-01-28,999
1123,2016-01-29,961
1124,2016-01-30,948
1125,2016-01-31,945
1126,2016-02-01,959
1127,2016-02-02,1004
1128,2016-02-03,996
1129,2016-02-04,997
1130,2016-02-05,936
1131,2016-02-06,976
1132,2016-02-07,961
1133,2016-02-08,952
1134,2016-02-09,997
1135,2016-02-10,972
1136,2016-02-11,1005
1137,2016-02-12,956
1138,2016-02-13,989
1139,2016-02-14,967
1140,2016-02-15,938
1141,2016-02-16,996
1142,2016-02-17,961
1143,2016-02-18,955
1144,2016-02-19,936
1145,2016-02-20,965
1146,2016-02-21,969
1147,2016-02-22,921
1148,2016-02-23,949
1149,2016-02-24,991
1150,2016-02-25,983
1151,2016-02-26,980
1152,2016-02-27,1017
1153,2016-02-28,965
1154,2016-03-01,980
1155,2016-03-02,960
1156,2016-03-03,966
1157,2016-03-04,979
1158,2016-03-05,999
1159,2016-03-06,997
1160,2016-03-07,995
1161,2016-03-08,931
1162,2016-03-09,952
1163,2016-03-10,964
1164,2016-03-11,985
1165,2016-03-12,966
1166,2016-03-13,978
1167,2016-03-14,947
1168,2016-03-15,953
1169,2016-03-16,906
1170,2016-03-17,988
1171,2016-03-18,968
1172,2016-03-19,933
1173,2016-03-20,998
1174,2016-03-21,973
1175,2016-03-22,955
1176,2016-03-23,982
1177,2016-03-24,988
1178,2016-03-25,914
1179,2016-03-26,960
1180,2016-03-27,930
1181,2016-03-28,958
1182,2016-03-29,1001
1183,2016-03-30,947
1184,2016-03-31,966
1185,2016-04-01,984
1186,2016-04-02,947
1187,2016-04-03,952
1188,2016-04-04,967
1189,2016-04-05,961
1190,2016-04-06,998
1191,2016-04-07,963
1192,2016-04-08,967
1193,2016-04-09,951
1194,2016-04-10,951
1195,2016-04-11,977
1196,2016-04-12,991
1197,2016-04-13,957
1198,2016-04-14,920
1199,2016-04-15,977
1200,2016-04-16,931
1201,2016-04-17,979
1202,2016-04-18,959
1203,2016-04-19,993
1204,2016-04-20,948
1205,2016-04-21,926
1206,2016-04-22,931
1207,2016-04-23,966
1208,2016-04-24,954
1209,2016-04-25,985
1210,2016-04-26,993
1211,2016-04-27,980
1212,2016-04-28,966
1213,2016-04-29,935
1214,2016-04-30,961
1215,2016-05-01,979
1216,2016-05-02,991
1217,2016-05-03,984
1218,2016-05-04,1007
1219,2016-05-05,1014
1220,2016-05-06,950
1221,2016-05-07,970
1222,2016-05-08,949
1223,2016-05-09,959
1224,2016-05-10,903
1225,2016-05-11,952
1226,2016-05-12,978
1227,2016-05-13,965
1228,2016-05-14,931
1229,2016-05-15,914
1230,2016-05-16,954
1231,2016-05-17,988
1232,2016-05-18,982
1233,2016-05-19,930
1234,2016-05-20,953
1235,2016-05-21,949
1236,2016-05-22,1012
1237,2016-05-23,978
1238,2016-05-24,978
1239,2016-05-25,989
1240,2016-05-26,964
1241,2016-05-27,915
1242,2016-05-28,959
1243,2016-05-29,980
1244,2016-05-30,907
1245,2016-05-31,908
1246,2016-06-01,960
1247,2016-06-02,917
1248,2016-06-03,966
1249,2016-06-04,986
1250,2016-06-05,1002
1251,2016-06-06,984
1252,2016-06-07,994
1253,2016-06-08,988
1254,2016-06-09,986
1255,2016-06-10,973
1256,2016-06-11,927
1257,2016-06-12,919
1258,2016-06-13,950
1259,2016-06-14,969
1260,2016-06-15,976
1261,2016-06-16,965
1262,2016-06-17,956
1263,2016-06-18,931
1264,2016-06-19,1013
1265,2016-06-20,921
1266,2016-06-21,997
1267,2016-06-22,957
1268,2016-06-23,969
1269,2016-06-24,892
1270,2016-06-25,965
1271,2016-06-26,948
1272,2016-06-27,971
1273,2016-06-28,996
1274,2016-06-29,934
1275,2016-06-30,910
1276,2016-07-01,947
1277,2016-07-02,927
1278,2016-07-03,966
1279,2016-07-04,976
1280,2016-07-05,938
1281,2016-07-06,953
1282,2016-07-07,986
1283,2016-07-08,969
1284,2016-07-09,963
1285,2016-07-10,961
1286,2016-07-11,974
1287,2016-07-12,915
1288,2016-07-13,926
1289,2016-07-14,927
1290,2016-07-15,1003
1291,2016-07-16,966
1292,2016-07-17,930
1293,2016-07-18,950
1294,2016-07-19,995
1295,2016-07-20,966
1296,2016-07-21,955
1297,2016-07-22,968
1298,2016-07-23,914
1299,2016-07-24,949
1300,2016-07-25,986
1301,2016-07-26,952
1302,2016-07-27,921
1303,2016-07-28,949
1304,2016-07-29,969
1305,2016-07-30,1005
1306,2016-07-31,922
1307,2016-08-01,1008
1308,2016-08-02,963
1309,2016-08-03,978
1310,2016-08-04,969
1311,2016-08-05,919
1312,2016-08-06,953
1313,2016-08-07,999
1314,2016-08-08,1000
1315,2016-08-09,945
1316,2016-08-10,989
1317,2016-08-11,942
1318,2016-08-12,945
1319,2016-08-13,959
1320,2016-08-14,952
1321,2016-08-15,939
1322,2016-08-16,990
1323,2016-08-17,994
1324,2016-08-18,947
1325,2016-08-19,1007
1326,2016-08-20,970
1327,2016-08-21,933
1328,2016-08-22,943
1329,2016-08-23,949
1330,2016-08-24,984
1331,2016-08-25,962
1332,2016-08-26,974
1333,2016-08-27,936
1334,2016-08-28,948
1335,2016-08-29,914
1336,2016-08-30,996
1337,2016-08-31,956
1338,2016-09-01,946
1339,2016-09-02,929
1340,2016-09-03,955
1341,2016-09-04,1008
1342,2016-09-05,940
1343,2016-09-06,943
1344,2016-09-07,898
1345,2016-09-08,985
1346,2016-09-09,928
1347,2016-09-10,949
1348,2016-09-11,992
1349,2016-09-12,932
1350,2016-09-13,968
1351,2016-09-14,917
1352,2016-09-15,978
1353,2016-09-16,976
1354,2016-09-17,935
1355,2016-09-18,943
1356,2016-09-19,929
1357,2016-09-20,961
1358,2016-09-21,982
1359,2016-09-22,962
1360,2016-09-23,974
1361,2016-09-24,896
1362,2016-09-25,931
1363,2016-09-26,957
1364,2016-09-27,969
1365,2016-09-28,928
1366,2016-09-29,986
1367,2016-09-30,977
1368,2016-10-01,952
1369,2016-10-02,980
1370,2016-10-03,911
1371,2016-10-04,972
1372,2016-10-05,933
1373,2016-10-06,970
1374,2016-10-07,958
1375,2016-10-08,957
1376,2016-10-09,1037
1377,2016-10-10,934
1378,2016-10-11,938
1379,2016-10-12,991
1380,2016-10-13,959
1381,2016-10-14,992
1382,2016-10-15,930
1383,2016-10-16,938
1384,2016-10-17,961
1385,2016-10-18,918
1386,2016-10-19,981
1387,2016-10-20,970
1388,2016-10-21,961
1389,2016-10-22,969
1390,2016-10-23,938
1391,2016-10-24,961
1392,2016-10-25,944
1393,2016-10-26,958
1394,2016-10-27,1000
1395,2016-10-28,999
1396,2016-10-29,992
1397,2016-10-30,939
1398,2016-10-31,909
1399,2016-11-01,952
1400,2016-11-02,950
1401,2016-11-03,968
1402,2016-11-04,943
1403,2016-11-05,971
1404,2016-11-06,918
1405,2016-11-07,949
1406,2016-11-08,950
1407,2016-11-09,943
1408,2016-11-10,933
1409,2016-11-11,918
1410,2016-11-12,950
1411,2016-11-13,969
1412,2016-11-14,979
1413,2016-11-15,988
1414,2016-11-16,989
1415,2016-11-17,1010
1416,2016-11-18,1015
1417,2016-11-19,962
1418,2016-11-20,1022
1419,2016-11-21,981
1420,2016-11-22,1016
1421,2016-11-23,1046
1422,2016-11-24,992
1423,2016-11-25,968
1424,2016-11-26,936
1425,2016-11-27,965
1426,2016-11-28,981
1427,2016-11-29,928
1428,2016-11-30,928
1429,2016-12-01,940
1430,2016-12-02,937
1431,2016-12-03,952
1432,2016-12-04,894
1433,2016-12-05,947
1434,2016-12-06,932
1435,2016-12-07,962
1436,2016-12-08,960
1437,2016-12-09,935
1438,2016-12-10,1003
1439,2016-12-11,955
1440,2016-12-12,901
1441,2016-12-13,1004
1442,2016-12-14,966
1443,2016-12-15,939
1444,2016-12-16,980
1445,2016-12-17,973
1446,2016-12-18,959
1447,2016-12-19,933
1448,2016-12-20,963
1449,2016-12-21,949
1450,2016-12-22,990
1451,2016-12-23,967
1452,2016-12-24,975
1453,2016-12-25,962
1454,2016-12-26,976
1455,2016-12-27,977
1456,2016-12-28,975
1457,2016-12-29,940
1458,2016-12-30,1015
1459,2016-12-31,961
1460,2017-01-01,1023
1461,2017-01-02,945
1462,2017-01-03,959
1463,2017-01-04,981
1464,2017-01-05,967
1465,2017-01-06,964
1466,2017-01-07,921
1467,2017-01-08,990
1468,2017-01-09,914
1469,2017-01-10,1003
1470,2017-01-11,932
1471,2017-01-12,943
1472,2017-01-13,973
1473,2017-01-14,940
1474,2017-01-15,936
1475,2017-01-16,997
1476,2017-01-17,985
1477,2017-01-18,937
1478,2017-01-19,973
1479,2017-01-20,960
1480,2017-01-21,948
1481,2017-01-22,942
1482,2017-01-23,954
1483,2017-01-24,925
1484,2017-01-25,984
1485,2017-01-26,972
1486,2017-01-27,936
1487,2017-01-28,933
1488,2017-01-29,983
1489,2017-01-30,1006
1490,2017-01-31,998
1491,2017-02-01,926
1492,2017-02-02,965
1493,2017-02-03,1003
1494,2017-02-04,954
1495,2017-02-05,963
1496,2017-02-06,943
1497,2017-02-07,976
1498,2017-02-08,1039
1499,2017-02-09,917
1500,2017-02-10,978
1501,2017-02-11,1009
1502,2017-02-12,1003
1503,2017-02-13,945
1504,2017-02-14,940
1505,2017-02-15,996
1506,2017-02-16,994
1507,2017-02-17,990
1508,2017-02-18,919
1509,2017-02-19,969
1510,2017-02-20,992
1511,2017-02-21,964
1512,2017-02-22,942
1513,2017-02-23,985
1514,2017-02-24,926
1515,2017-02-25,990
1516,2017-02-26,959
1517,2017-02-27,1009
1518,2017-02-28,1009
1519,2017-03-01,940
1520,2017-03-02,955
1521,2017-03-03,968
1522,2017-03-04,942
1523,2017-03-05,972
1524,2017-03-06,909
1525,2017-03-07,927
1526,2017-03-08,922
1527,2017-03-09,999
1528,2017-03-10,885
1529,2017-03-11,964
1530,2017-03-12,999
1531,2017-03-13,970
1532,2017-03-14,972
1533,2017-03-15,976
1534,2017-03-16,947
1535,2017-03-17,980
1536,2017-03-18,974
1537,2017-03-19,1005
1538,2017-03-20,947
1539,2017-03-21,934
1540,2017-03-22,961
1541,2017-03-23,953
1542,2017-03-24,994
1543,2017-03-25,984
1544,2017-03-26,954
1545,2017-03-27,991
1546,2017-03-28,993
1547,2017-03-29,943
1548,2017-03-30,920
1549,2017-03-31,1046
1550,2017-04-01,935
1551,2017-04-02,940
1552,2017-04-03,952
1553,2017-04-04,970
1554,2017-04-05,971
1555,2017-04-06,914
1556,2017-04-07,954
1557,2017-04-08,958
1558,2017-04-09,960
1559,2017-04-10,950
1560,2017-04-11,951
1561,2017-04-12,924
1562,2017-04-13,998
1563,2017-04-14,949
1564,2017-04-15,937
1565,2017-04-16,986
1566,2017-04-17,956
1567,2017-04-18,915
1568,2017-04-19,1007
1569,2017-04-20,961
1570,2017-04-21,997
1571,2017-04-22,956
1572,2017-04-23,933
1573,2017-04-24,927
1574,2017-04-25,1015
1575,2017-04-26,1002
1576,2017-04-27,974
1577,2017-04-28,957
1578,2017-04-29,923
1579,2017-04-30,916
1580,2017-05-01,969
1581,2017-05-02,978
1582,2017-05-03,923
1583,2017-05-04,940
1584,2017-05-05,965
1585,2017-05-06,940
1586,2017-05-07,977
1587,2017-05-08,936
1588,2017-05-09,954
1589,2017-05-10,942
1590,2017-05-11,935
1591,2017-05-12,1023
1592,2017-05-13,983
1593,2017-05-14,922
1594,2017-05-15,942
1595,2017-05-16,979
1596,2017-05-17,951
1597,2017-05-18,938
1598,2017-05-19,974
1599,2017-05-20,978
1600,2017-05-21,946
1601,2017-05-22,984
1602,2017-05-23,974
1603,2017-05-24,963
1604,2017-05-25,1027
1605,2017-05-26,988
1606,2017-05-27,960
1607,2017-05-28,993
1608,2017-05-29,974
1609,2017-05-30,929
1610,2017-05-31,952
1611,2017-06-01,945
1612,2017-06-02,971
1613,2017-06-03,953
1614,2017-06-04,950
1615,2017-06-05,955
1616,2017-06-06,953
1617,2017-06-07,940
1618,2017-06-08,989
1619,2017-06-09,971
1620,2017-06-10,932
1621,2017-06-11,958
1622,2017-06-12,924
1623,2017-06-13,940
1624,2017-06-14,975
1625,2017-06-15,952
1626,2017-06-16,949
1627,2017-06-17,942
1628,2017-06-18,962
1629,2017-06-19,929
1630,2017-06-20,981
1631,2017-06-21,1016
1632,2017-06-22,913
1633,2017-06-23,885
1634,2017-06-24,1021
1635,2017-06-25,939
1636,2017-06-26,990
1637,2017-06-27,948
1638,2017-06-28,974
1639,2017-06-29,928
1640,2017-06-30,945
1641,2017-07-01,945
1642,2017-07-02,969
1643,2017-07-03,964
1644,2017-07-04,947
1645,2017-07-05,990
1646,2017-07-06,1016
1647,2017-07-07,969
1648,2017-07-08,947
1649,2017-07-09,985
1650,2017-07-10,1020
1651,2017-07-11,917
1652,2017-07-12,978
1653,2017-07-13,962
1654,2017-07-14,900
1655,2017-07-15,969
1656,2017-07-16,955
1657,2017-07-17,977
1658,2017-07-18,976
1659,2017-07-19,935
1660,2017-07-20,928
1661,2017-07-21,967
1662,2017-07-22,960
1663,2017-07-23,966
1664,2017-07-24,886
1665,2017-07-25,947
1666,2017-07-26,975
1667,2017-07-27,985
1668,2017-07-28,934
1669,2017-07-29,974
1670,2017-07-30,933
1671,2017-07-31,967
1672,2017-08-01,909
1673,2017-08-02,984
1674,2017-08-03,965
1675,2017-08-04,951
1676,2017-08-05,969
1677,2017-08-06,984
1678,2017-08-07,944
1679,2017-08-08,966
1680,2017-08-09,937
1681,2017-08-10,950
1682,2017-08-11,985
1683,2017-08-12,920
1684,2017-08-13,941
1685,2017-08-14,921
1686,2017-08-15,969
1687,2017-08-16,943
1688,2017-08-17,970
1689,2017-08-18,944
1690,2017-08-19,985
1691,2017-08-20,978
1692,2017-08-21,963
1693,2017-08-22,956
1694,2017-08-23,935
1695,2017-08-24,909
1696,2017-08-25,1004
1697,2017-08-26,984
1698,2017-08-27,959
1699,2017-08-28,941
1700,2017-08-29,991
1701,2017-08-30,933
1702,2017-08-31,949
1703,2017-09-01,940
1704,2017-09-02,972
1705,2017-09-03,966
1706,2017-09-04,913
1707,2017-09-05,957
1708,2017-09-06,989
1709,2017-09-07,986
1710,2017-09-08,959
1711,2017-09-09,1056
1712,2017-09-10,931
1713,2017-09-11,968
1714,2017-09-12,992
1715,2017-09-13,951
1716,2017-09-14,979
1717,2017-09-15,982
1718,2017-09-16,977
1719,2017-09-17,955
1720,2017-09-18,974
1721,2017-09-19,976
1722,2017-09-20,933
1723,2017-09-21,990
1724,2017-09-22,942
1725,2017-09-23,960
1726,2017-09-24,949
1727,2017-09-25,1005
1728,2017-09-26,966
1729,2017-09-27,971
1730,2017-09-28,927
1731,2017-09-29,947
1732,2017-09-30,959
1733,2017-10-01,994
1734,2017-10-02,994
1735,2017-10-03,1003
1736,2017-10-04,1012
1737,2017-10-05,989
1738,2017-10-06,967
1739,2017-10-07,1001
1740,2017-10-08,941
1741,2017-10-09,923
1742,2017-10-10,926
1743,2017-10-11,932
1744,2017-10-12,953
1745,2017-10-13,927
1746,2017-10-14,965
1747,2017-10-15,967
1748,2017-10-16,985
1749,2017-10-17,948
1750,2017-10-18,984
1751,2017-10-19,998
1752,2017-10-20,938
1753,2017-10-21,1003
1754,2017-10-22,969
1755,2017-10-23,960
1756,2017-10-24,942
1757,2017-10-25,970
1758,2017-10-26,979
1759,2017-10-27,959
1760,2017-10-28,933
1761,2017-10-29,967
1762,2017-10-30,951
1763,2017-10-31,989
1764,2017-11-01,906
1765,2017-11-02,953
1766,2017-11-03,1026
1767,2017-11-04,1094
1768,2017-11-05,948
1769,2017-11-06,954
1770,2017-11-07,950
1771,2017-11-08,945
1772,2017-11-09,913
1773,2017-11-10,997
1774,2017-11-11,938
1775,2017-11-12,920
1776,2017-11-13,942
1777,2017-11-14,942
1778,2017-11-15,1009
1779,2017-11-16,957
1780,2017-11-17,951
1781,2017-11-18,961
1782,2017-11-19,960
1783,2017-11-20,938
1784,2017-11-21,974
1785,2017-11-22,965
1786,2017-11-23,950
1787,2017-11-24,921
1788,2017-11-25,966
1789,2017-11-26,978
1790,2017-11-27,967
1791,2017-11-28,929
1792,2017-11-29,959
1793,2017-11-30,949
1794,2017-12-01,959
1795,2017-12-02,1022
1796,2017-12-03,936
1797,2017-12-04,972
1798,2017-12-05,969
1799,2017-12-06,935
1800,2017-12-07,946
1801,2017-12-08,990
1802,2017-12-09,1052
1803,2017-12-10,1014
1804,2017-12-11,971
1805,2017-12-12,952
1806,2017-12-13,967
1807,2017-12-14,905
1808,2017-12-15,996
1809,2017-12-16,978
1810,2017-12-17,957
1811,2017-12-18,951
1812,2017-12-19,934
1813,2017-12-20,972
1814,2017-12-21,934
1815,2017-12-22,958
1816,2017-12-23,970
1817,2017-12-24,953
1818,2017-12-25,943
1819,2017-12-26,947
1820,2017-12-27,983
1821,2017-12-28,957
1822,2017-12-29,980
1823,2017-12-30,937
1824,2017-12-31,954
